{
"id": "7amdnlw87262nsb_87jsmskjnaksd",
"name": "Robinson Paz",
"imageUrl": "https://images.pexels.com/photos/4940300/pexels-photo-4940300.jpeg?auto=compress&cs=tinysrgb&dpr=2&h=750&w=300",
"somet": "a"
}